…
```r
mammals <- 
  homerange %>% 
  filter(taxon=="mammals") %>% 
  select(common.name, family, genus, species, trophic.guild, mean.mass.g, log10.mass, mean.hra.m2, log10.hra, preymass, log10.preymass)
```


```r
mammals
```

```
## # A tibble: 238 x 11
##    common.name family genus species trophic.guild mean.mass.g log10.mass
##    <chr>       <chr>  <chr> <chr>   <chr>               <dbl>      <dbl>
##  1 giant gold… chrys… chry… trevel… carnivore            437.       2.64
##  2 Grant's go… chrys… erem… granti  carnivore             23        1.36
##  3 pronghorn   antil… anti… americ… herbivore          46100.       4.66
##  4 impala      bovid… aepy… melamp… herbivore          63504.       4.80
##  5 hartebeest  bovid… alce… busela… herbivore         136000.       5.13
##  6 barbary sh… bovid… ammo… lervia  herbivore         167498.       5.22
##  7 American b… bovid… bison bison   herbivore         629999.       5.80
##  8 European b… bovid… bison bonasus herbivore         628001.       5.80
##  9 goat        bovid… capra hircus  herbivore          51000.       4.71
## 10 Spanish ib… bovid… capra pyrena… herbivore          69499.       4.84
## # … with 228 more rows, and 4 more variables: mean.hra.m2 <dbl>,
## #   log10.hra <dbl>, preymass <dbl>, log10.preymass <dbl>
```
…
##There seems to be a positive relationship between mass and homerange. 

3. Make a barplot that shows the masses of the top 10 smallest mammals in terms of mass. Be sure to use `stat'="identity"`.

```r
homerange %>% 
  filter(taxon=="mammals") %>% 
  select(common.name, mean.mass.g) %>% 
  arrange((mean.mass.g))
```

```
## # A tibble: 238 x 2
##    common.name                    mean.mass.g
##    <chr>                                <dbl>
##  1 cinereus shrew                        4.17
##  2 slender shrew                         4.37
##  3 arctic shrew                          8.13
##  4 crowned shrew                         9.33
##  5 greater white-footed shrew           10   
##  6 salt marsh harvest mouse             11.0 
##  7 long-clawed shrew                    14.1 
##  8 Northern three-striped opossum       19.5 
##  9 wood mouse                           21.2 
## 10 southern grasshopper mouse           22   
## # … with 228 more rows
```


```r
smallest_mammals<-
  homerange %>% 
  filter(taxon=="mammals") %>% 
  select(common.name, family, genus, species, trophic.guild, mean.mass.g, log10.mass) %>% 
  arrange(mean.mass.g)
smallest_mammals
```

```
## # A tibble: 238 x 7
##    common.name   family  genus species trophic.guild mean.mass.g log10.mass
##    <chr>         <chr>   <chr> <chr>   <chr>               <dbl>      <dbl>
##  1 cinereus shr… sorici… sorex cinere… carnivore            4.17      0.620
##  2 slender shrew sorici… sorex gracil… carnivore            4.37      0.640
##  3 arctic shrew  sorici… sorex arctic… carnivore            8.13      0.910
##  4 crowned shrew sorici… sorex corona… carnivore            9.33      0.970
##  5 greater whit… sorici… croc… russula carnivore           10         1    
##  6 salt marsh h… cricet… reit… ravive… herbivore           11.0       1.04 
##  7 long-clawed … sorici… sorex unguic… carnivore           14.1       1.15 
##  8 Northern thr… didelp… mono… americ… carnivore           19.5       1.29 
##  9 wood mouse    muridae apod… sylvat… herbivore           21.2       1.33 
## 10 southern gra… cricet… onyc… torrid… carnivore           22         1.34 
## # … with 228 more rows
```
…
