…
6. Which cities in California have the highest number of colleges?

```r
colleges %>% 
  count(CITY) %>% 
  arrange(desc(n))
```

```
## # A tibble: 161 x 2
##    CITY              n
##    <chr>         <int>
##  1 Los Angeles      24
##  2 San Diego        18
##  3 San Francisco    15
##  4 Sacramento       10
##  5 Berkeley          9
##  6 Oakland           9
##  7 Claremont         7
##  8 Pasadena          6
##  9 Fresno            5
## 10 Irvine            5
## # … with 151 more rows
```


7. The column `COSTT4_A` is the annual cost of each institution. Which city has the highest cost?

```r
colleges %>% 
  arrange(desc(COSTT4_A))
```

```
## # A tibble: 341 x 10
##    INSTNM CITY  STABBR ZIP   ADM_RATE SAT_AVG PCIP26 COSTT4_A C150_4_POOLED
##    <chr>  <chr> <chr>  <chr>    <dbl>   <dbl>  <dbl>    <dbl>         <dbl>
##  1 Harve… Clar… CA     91711   0.129     1496 0.0674    69355         0.925
##  2 South… Los … CA     9001…  NA           NA 0         67225         0.533
##  3 Unive… Los … CA     90089   0.166     1395 0.0461    67064         0.922
##  4 Occid… Los … CA     9004…   0.458     1315 0.137     67046         0.842
##  5 Clare… Clar… CA     9171…   0.0944    1413 0.0681    66325         0.924
##  6 Peppe… Mali… CA     90263   0.369     1251 0.0276    66152         0.854
##  7 Scrip… Clar… CA     9171…   0.299     1353 0.152     66060         0.871
##  8 Pitze… Clar… CA     9171…   0.137       NA 0.0888    65880         0.888
##  9 San F… San … CA     9413…   0.926       NA 0         65453         0.388
## 10 Pomon… Clar… CA     9171…   0.0944    1442 0.171     64870         0.957
## # … with 331 more rows, and 1 more variable: PFTFTUG1_EF <dbl>
```
…
```
## Warning: Expected 2 pieces. Missing pieces filled with `NA` in 3 rows [243,
## 244, 245].
```

```r
colleges
```

```
## # A tibble: 341 x 11
##    UNIV  CAMPUS CITY  STABBR ZIP   ADM_RATE SAT_AVG PCIP26 COSTT4_A
##    <chr> <chr>  <chr> <chr>  <chr>    <dbl>   <dbl>  <dbl>    <dbl>
##  1 Gros… Colle… El C… CA     9202…       NA      NA 0.0016     7956
##  2 Coll… of     Visa… CA     9327…       NA      NA 0.0066     8109
##  3 Coll… of     San … CA     9440…       NA      NA 0.0038     8278
##  4 Vent… Colle… Vent… CA     9300…       NA      NA 0.0035     8407
##  5 Oxna… Colle… Oxna… CA     9303…       NA      NA 0.0085     8516
##  6 Moor… Colle… Moor… CA     9302…       NA      NA 0.0151     8577
##  7 Skyl… Colle… San … CA     9406…       NA      NA 0          8580
##  8 Glen… Commu… Glen… CA     9120…       NA      NA 0.002      9181
##  9 Citr… Colle… Glen… CA     9174…       NA      NA 0.0021     9281
## 10 Fres… City   Fres… CA     93741       NA      NA 0.0324     9370
## # … with 331 more rows, and 2 more variables: C150_4_POOLED <dbl>,
## #   PFTFTUG1_EF <dbl>
```


11. As a final step, remove `Hastings College of Law` and `UC San Francisco` and store the final data frame as a new object `univ_calif_final`.

```r
univ_calif_final<-colleges %>% 
  filter(CAMPUS !="University of California-Hastings College of Law", CAMPUS !="University of California-San Francisco")
univ_calif_final
```

```
## # A tibble: 338 x 11
##    UNIV  CAMPUS CITY  STABBR ZIP   ADM_RATE SAT_AVG PCIP26 COSTT4_A
##    <chr> <chr>  <chr> <chr>  <chr>    <dbl>   <dbl>  <dbl>    <dbl>
##  1 Gros… Colle… El C… CA     9202…       NA      NA 0.0016     7956
##  2 Coll… of     Visa… CA     9327…       NA      NA 0.0066     8109
##  3 Coll… of     San … CA     9440…       NA      NA 0.0038     8278
##  4 Vent… Colle… Vent… CA     9300…       NA      NA 0.0035     8407
##  5 Oxna… Colle… Oxna… CA     9303…       NA      NA 0.0085     8516
##  6 Moor… Colle… Moor… CA     9302…       NA      NA 0.0151     8577
##  7 Skyl… Colle… San … CA     9406…       NA      NA 0          8580
##  8 Glen… Commu… Glen… CA     9120…       NA      NA 0.002      9181
##  9 Citr… Colle… Glen… CA     9174…       NA      NA 0.0021     9281
## 10 Fres… City   Fres… CA     93741       NA      NA 0.0324     9370
## # … with 328 more rows, and 2 more variables: C150_4_POOLED <dbl>,
## #   PFTFTUG1_EF <dbl>
```
…
